{
  "development": {
    "dialect": "sqlite",
    "storage": "./database.sqlite"
  },
  "test": {
    "dialect": "mysql",
    "storage": ":memory"
  },
  "production": {
    "dialect": "sqlite",
    "storage": "./database.sqlite"
  }
}